INDEX VERSION 1.131+/home/sympla/eclipse-workspace/API_Rest/.metadata/.plugins/org.eclipse.jdt.core
513158290.index
2181542499.index
120211678.index
2233963263.index
3670318966.index
3888198363.index
1092382055.index
1883580471.index
3117698186.index
1668753472.index
2841451250.index
2020028233.index
2144657424.index
3116012485.index
2569181545.index
1405472510.index
3721837726.index
3602455571.index
4114672253.index
3885805113.index
3321869151.index
3937015853.index
2630498905.index
2749459404.index
535838174.index
2620127684.index
2825411623.index
527624335.index
2529910668.index
331631472.index
1932949083.index
2771403403.index
1401587613.index
3033583834.index
3072864515.index
3577425812.index
1913109094.index
621543286.index
1161629342.index
3537930360.index
4134870231.index
713574878.index
2982035129.index
3335963541.index
46282419.index
2157494296.index
2478680131.index
2367546426.index
2921526935.index
3214207201.index
742522455.index
2066489604.index
